{
   "config": {
      "chainId": 1990,
      "homesteadBlock": 0,
      "eip155Block": 0,
      "eip158Block": 0,
      "byzantiumBlock": 0
   },
   "difficulty": "400",
   "gasLimit": "2000000",
   "alloc": {
      "0xd0856319C9E1B3918ceF54E30b558C49A99242e5": { 
          "balance": "100000000000000000000000" 
      },
      "0x020eE940190C021a52843F3A1c0Ad9906fC152cE": { 
          "balance": "120000000000000000000000" 
      }
   }
}